{
    "name": "Optivita",
    "variables": [
        {
            "BackgroundColor": "F5F6C1",
            "FontFamily": "Arial, Sans-Serif",
            "FontSize": "13px",
            "screen-sm-min": "768px",
            "screen-md-min": "992px",
            "screen-lg-min": "1200px",
            "Color": "000000"
        }
    ],
    "javascript": [
        {
            "jQuery_version": "1.10.2.min",
            "plugins": "bootstrap,jquery-ui, enscroll-0.6.1"
        }
    ],
    "cache_skip": "",
    "preload": {
        "css": {
            "\/volume1\/web\/firme\/templates\/default\/images\/ui-bg_highlight-soft_100_eeeeee_1x100.png": {
                "original": "images\/ui-bg_highlight-soft_100_eeeeee_1x100.png",
                "resources": "\/resources\/resize\/images\/ui-bg_highlight-soft_100_eeeeee_1x100.png",
                "rsrc": "\/rsrc\/resize\/images\/ui-bg_highlight-soft_100_eeeeee_1x100.png",
                "fullpath": "\/volume1\/web\/firme\/templates\/default\/images\/ui-bg_highlight-soft_100_eeeeee_1x100.png",
                "basename": "ui-bg_highlight-soft_100_eeeeee_1x100.png",
                "filename": "ui-bg_highlight-soft_100_eeeeee_1x100",
                "extension": "png"
            },
            "\/volume1\/web\/firme\/templates\/default\/images\/ui-bg_gloss-wave_35_f6a828_500x100.png": {
                "original": "images\/ui-bg_gloss-wave_35_f6a828_500x100.png",
                "resources": "\/resources\/resize\/images\/ui-bg_gloss-wave_35_f6a828_500x100.png",
                "rsrc": "\/rsrc\/resize\/images\/ui-bg_gloss-wave_35_f6a828_500x100.png",
                "fullpath": "\/volume1\/web\/firme\/templates\/default\/images\/ui-bg_gloss-wave_35_f6a828_500x100.png",
                "basename": "ui-bg_gloss-wave_35_f6a828_500x100.png",
                "filename": "ui-bg_gloss-wave_35_f6a828_500x100",
                "extension": "png"
            },
            "\/volume1\/web\/firme\/templates\/default\/images\/ui-bg_glass_100_f6f6f6_1x400.png": {
                "original": "images\/ui-bg_glass_100_f6f6f6_1x400.png",
                "resources": "\/resources\/resize\/images\/ui-bg_glass_100_f6f6f6_1x400.png",
                "rsrc": "\/rsrc\/resize\/images\/ui-bg_glass_100_f6f6f6_1x400.png",
                "fullpath": "\/volume1\/web\/firme\/templates\/default\/images\/ui-bg_glass_100_f6f6f6_1x400.png",
                "basename": "ui-bg_glass_100_f6f6f6_1x400.png",
                "filename": "ui-bg_glass_100_f6f6f6_1x400",
                "extension": "png"
            },
            "\/volume1\/web\/firme\/templates\/default\/images\/ui-bg_glass_100_fdf5ce_1x400.png": {
                "original": "images\/ui-bg_glass_100_fdf5ce_1x400.png",
                "resources": "\/resources\/resize\/images\/ui-bg_glass_100_fdf5ce_1x400.png",
                "rsrc": "\/rsrc\/resize\/images\/ui-bg_glass_100_fdf5ce_1x400.png",
                "fullpath": "\/volume1\/web\/firme\/templates\/default\/images\/ui-bg_glass_100_fdf5ce_1x400.png",
                "basename": "ui-bg_glass_100_fdf5ce_1x400.png",
                "filename": "ui-bg_glass_100_fdf5ce_1x400",
                "extension": "png"
            },
            "\/volume1\/web\/firme\/templates\/default\/images\/ui-bg_glass_65_ffffff_1x400.png": {
                "original": "images\/ui-bg_glass_65_ffffff_1x400.png",
                "resources": "\/resources\/resize\/images\/ui-bg_glass_65_ffffff_1x400.png",
                "rsrc": "\/rsrc\/resize\/images\/ui-bg_glass_65_ffffff_1x400.png",
                "fullpath": "\/volume1\/web\/firme\/templates\/default\/images\/ui-bg_glass_65_ffffff_1x400.png",
                "basename": "ui-bg_glass_65_ffffff_1x400.png",
                "filename": "ui-bg_glass_65_ffffff_1x400",
                "extension": "png"
            },
            "\/volume1\/web\/firme\/templates\/default\/images\/ui-bg_highlight-soft_75_ffe45c_1x100.png": {
                "original": "images\/ui-bg_highlight-soft_75_ffe45c_1x100.png",
                "resources": "\/resources\/resize\/images\/ui-bg_highlight-soft_75_ffe45c_1x100.png",
                "rsrc": "\/rsrc\/resize\/images\/ui-bg_highlight-soft_75_ffe45c_1x100.png",
                "fullpath": "\/volume1\/web\/firme\/templates\/default\/images\/ui-bg_highlight-soft_75_ffe45c_1x100.png",
                "basename": "ui-bg_highlight-soft_75_ffe45c_1x100.png",
                "filename": "ui-bg_highlight-soft_75_ffe45c_1x100",
                "extension": "png"
            },
            "\/volume1\/web\/firme\/templates\/default\/images\/ui-bg_diagonals-thick_18_b81900_40x40.png": {
                "original": "images\/ui-bg_diagonals-thick_18_b81900_40x40.png",
                "resources": "\/resources\/resize\/images\/ui-bg_diagonals-thick_18_b81900_40x40.png",
                "rsrc": "\/rsrc\/resize\/images\/ui-bg_diagonals-thick_18_b81900_40x40.png",
                "fullpath": "\/volume1\/web\/firme\/templates\/default\/images\/ui-bg_diagonals-thick_18_b81900_40x40.png",
                "basename": "ui-bg_diagonals-thick_18_b81900_40x40.png",
                "filename": "ui-bg_diagonals-thick_18_b81900_40x40",
                "extension": "png"
            },
            "\/volume1\/web\/firme\/templates\/default\/images\/ui-icons_222222_256x240.png": {
                "original": "images\/ui-icons_222222_256x240.png",
                "resources": "\/resources\/resize\/images\/ui-icons_222222_256x240.png",
                "rsrc": "\/rsrc\/resize\/images\/ui-icons_222222_256x240.png",
                "fullpath": "\/volume1\/web\/firme\/templates\/default\/images\/ui-icons_222222_256x240.png",
                "basename": "ui-icons_222222_256x240.png",
                "filename": "ui-icons_222222_256x240",
                "extension": "png"
            },
            "\/volume1\/web\/firme\/templates\/default\/images\/ui-icons_ffffff_256x240.png": {
                "original": "images\/ui-icons_ffffff_256x240.png",
                "resources": "\/resources\/resize\/images\/ui-icons_ffffff_256x240.png",
                "rsrc": "\/rsrc\/resize\/images\/ui-icons_ffffff_256x240.png",
                "fullpath": "\/volume1\/web\/firme\/templates\/default\/images\/ui-icons_ffffff_256x240.png",
                "basename": "ui-icons_ffffff_256x240.png",
                "filename": "ui-icons_ffffff_256x240",
                "extension": "png"
            },
            "\/volume1\/web\/firme\/templates\/default\/images\/ui-icons_ef8c08_256x240.png": {
                "original": "images\/ui-icons_ef8c08_256x240.png",
                "resources": "\/resources\/resize\/images\/ui-icons_ef8c08_256x240.png",
                "rsrc": "\/rsrc\/resize\/images\/ui-icons_ef8c08_256x240.png",
                "fullpath": "\/volume1\/web\/firme\/templates\/default\/images\/ui-icons_ef8c08_256x240.png",
                "basename": "ui-icons_ef8c08_256x240.png",
                "filename": "ui-icons_ef8c08_256x240",
                "extension": "png"
            },
            "\/volume1\/web\/firme\/templates\/default\/images\/ui-icons_228ef1_256x240.png": {
                "original": "images\/ui-icons_228ef1_256x240.png",
                "resources": "\/resources\/resize\/images\/ui-icons_228ef1_256x240.png",
                "rsrc": "\/rsrc\/resize\/images\/ui-icons_228ef1_256x240.png",
                "fullpath": "\/volume1\/web\/firme\/templates\/default\/images\/ui-icons_228ef1_256x240.png",
                "basename": "ui-icons_228ef1_256x240.png",
                "filename": "ui-icons_228ef1_256x240",
                "extension": "png"
            },
            "\/volume1\/web\/firme\/templates\/default\/images\/ui-icons_ffd27a_256x240.png": {
                "original": "images\/ui-icons_ffd27a_256x240.png",
                "resources": "\/resources\/resize\/images\/ui-icons_ffd27a_256x240.png",
                "rsrc": "\/rsrc\/resize\/images\/ui-icons_ffd27a_256x240.png",
                "fullpath": "\/volume1\/web\/firme\/templates\/default\/images\/ui-icons_ffd27a_256x240.png",
                "basename": "ui-icons_ffd27a_256x240.png",
                "filename": "ui-icons_ffd27a_256x240",
                "extension": "png"
            },
            "\/volume1\/web\/firme\/templates\/default\/images\/ui-bg_diagonals-thick_20_666666_40x40.png": {
                "original": "images\/ui-bg_diagonals-thick_20_666666_40x40.png",
                "resources": "\/resources\/resize\/images\/ui-bg_diagonals-thick_20_666666_40x40.png",
                "rsrc": "\/rsrc\/resize\/images\/ui-bg_diagonals-thick_20_666666_40x40.png",
                "fullpath": "\/volume1\/web\/firme\/templates\/default\/images\/ui-bg_diagonals-thick_20_666666_40x40.png",
                "basename": "ui-bg_diagonals-thick_20_666666_40x40.png",
                "filename": "ui-bg_diagonals-thick_20_666666_40x40",
                "extension": "png"
            },
            "\/volume1\/web\/firme\/templates\/default\/images\/ui-bg_flat_10_000000_40x100.png": {
                "original": "images\/ui-bg_flat_10_000000_40x100.png",
                "resources": "\/resources\/resize\/images\/ui-bg_flat_10_000000_40x100.png",
                "rsrc": "\/rsrc\/resize\/images\/ui-bg_flat_10_000000_40x100.png",
                "fullpath": "\/volume1\/web\/firme\/templates\/default\/images\/ui-bg_flat_10_000000_40x100.png",
                "basename": "ui-bg_flat_10_000000_40x100.png",
                "filename": "ui-bg_flat_10_000000_40x100",
                "extension": "png"
            },
            "\/volume1\/web\/firme\/templates\/default\/fonts\/glyphicons-halflings-regular.eot": {
                "original": "\/fonts\/glyphicons-halflings-regular.eot",
                "resources": "\/resources\/fonts\/glyphicons-halflings-regular.eot",
                "rsrc": "\/rsrc\/fonts\/glyphicons-halflings-regular.eot",
                "fullpath": "\/volume1\/web\/firme\/templates\/default\/fonts\/glyphicons-halflings-regular.eot",
                "basename": "glyphicons-halflings-regular.eot",
                "filename": "glyphicons-halflings-regular",
                "extension": "eot"
            },
            "\/volume1\/web\/firme\/templates\/default\/fonts\/glyphicons-halflings-regular.woff2": {
                "original": "\/fonts\/glyphicons-halflings-regular.woff2",
                "resources": "\/resources\/fonts\/glyphicons-halflings-regular.woff2",
                "rsrc": "\/rsrc\/fonts\/glyphicons-halflings-regular.woff2",
                "fullpath": "\/volume1\/web\/firme\/templates\/default\/fonts\/glyphicons-halflings-regular.woff2",
                "basename": "glyphicons-halflings-regular.woff2",
                "filename": "glyphicons-halflings-regular",
                "extension": "woff2"
            },
            "\/volume1\/web\/firme\/templates\/default\/fonts\/glyphicons-halflings-regular.woff": {
                "original": "\/fonts\/glyphicons-halflings-regular.woff",
                "resources": "\/resources\/fonts\/glyphicons-halflings-regular.woff",
                "rsrc": "\/rsrc\/fonts\/glyphicons-halflings-regular.woff",
                "fullpath": "\/volume1\/web\/firme\/templates\/default\/fonts\/glyphicons-halflings-regular.woff",
                "basename": "glyphicons-halflings-regular.woff",
                "filename": "glyphicons-halflings-regular",
                "extension": "woff"
            },
            "\/volume1\/web\/firme\/templates\/default\/fonts\/glyphicons-halflings-regular.ttf": {
                "original": "\/fonts\/glyphicons-halflings-regular.ttf",
                "resources": "\/resources\/fonts\/glyphicons-halflings-regular.ttf",
                "rsrc": "\/rsrc\/fonts\/glyphicons-halflings-regular.ttf",
                "fullpath": "\/volume1\/web\/firme\/templates\/default\/fonts\/glyphicons-halflings-regular.ttf",
                "basename": "glyphicons-halflings-regular.ttf",
                "filename": "glyphicons-halflings-regular",
                "extension": "ttf"
            }
        }
    }
}