{
    "name": "Admin",
    "variables": [
        {
            "baseColor": "f5f5f5",
            "FontFamily": "Source Sans Pro",
            "FontSize": "13px",
            "Color": "000000",
            "@topbarColor": "63a822",
            "@topbarHoverColor": "0157bd",
            "@topbarHeight": "25px"
        }
    ],
    "javascript": [
        {
            "jQuery_version": "2.1.3.min",
            "plugins": "jquery.min, bootstrap.min, detect, fastclick, jquery.slimscroll, jquery.blockUI, waves, wow.min, jquery.nicescroll, jquery.scrollTo.min, plugins\/peity\/jquery.peity.min, plugins\/waypoints\/lib\/jquery.waypoints, plugins\/counterup\/jquery.counterup.min, plugins\/morris\/morris.min, plugins\/raphael\/raphael-min, plugins\/jquery-knob\/jquery.knob, pages\/jquery.dashboard, jquery.core, jquery.app"
        }
    ],
    "cache_skip": "css",
    "google_fonts": [
        []
    ],
    "allowpreload": "css,img",
    "preload": {
        "css": {
            "\/volume1\/web\/firme\/templates\/admin\/images\/multiple-arrow.png": {
                "original": "\/images\/multiple-arrow.png",
                "resources": "\/resources\/resize\/admin\/images\/multiple-arrow.png",
                "rsrc": "\/rsrc\/resize\/admin\/images\/multiple-arrow.png",
                "fullpath": "\/volume1\/web\/firme\/templates\/admin\/images\/multiple-arrow.png",
                "basename": "multiple-arrow.png",
                "filename": "multiple-arrow",
                "extension": "png"
            },
            "\/volume1\/web\/firme\/templates\/admin\/images\/agsquare.png": {
                "original": "\/images\/agsquare.png",
                "resources": "\/resources\/resize\/admin\/images\/agsquare.png",
                "rsrc": "\/rsrc\/resize\/admin\/images\/agsquare.png",
                "fullpath": "\/volume1\/web\/firme\/templates\/admin\/images\/agsquare.png",
                "basename": "agsquare.png",
                "filename": "agsquare",
                "extension": "png"
            },
            "\/volume1\/web\/firme\/templates\/admin\/images\/download.png": {
                "original": "\/images\/download.png",
                "resources": "\/resources\/resize\/admin\/images\/download.png",
                "rsrc": "\/rsrc\/resize\/admin\/images\/download.png",
                "fullpath": "\/volume1\/web\/firme\/templates\/admin\/images\/download.png",
                "basename": "download.png",
                "filename": "download",
                "extension": "png"
            },
            "\/volume1\/web\/firme\/templates\/admin\/images\/big\/bg.jpg": {
                "original": "\/images\/big\/bg.jpg",
                "resources": "\/resources\/resize\/admin\/images\/big\/bg.jpg",
                "rsrc": "\/rsrc\/resize\/admin\/images\/big\/bg.jpg",
                "fullpath": "\/volume1\/web\/firme\/templates\/admin\/images\/big\/bg.jpg",
                "basename": "bg.jpg",
                "filename": "bg",
                "extension": "jpg"
            },
            "\/volume1\/web\/firme\/templates\/admin\/fonts\/glyphicons-halflings-regular.eot": {
                "original": "\/fonts\/glyphicons-halflings-regular.eot",
                "resources": "\/resources\/admin\/fonts\/glyphicons-halflings-regular.eot",
                "rsrc": "\/rsrc\/admin\/fonts\/glyphicons-halflings-regular.eot",
                "fullpath": "\/volume1\/web\/firme\/templates\/admin\/fonts\/glyphicons-halflings-regular.eot",
                "basename": "glyphicons-halflings-regular.eot",
                "filename": "glyphicons-halflings-regular",
                "extension": "eot"
            },
            "\/volume1\/web\/firme\/templates\/admin\/fonts\/glyphicons-halflings-regular.woff2": {
                "original": "\/fonts\/glyphicons-halflings-regular.woff2",
                "resources": "\/resources\/admin\/fonts\/glyphicons-halflings-regular.woff2",
                "rsrc": "\/rsrc\/admin\/fonts\/glyphicons-halflings-regular.woff2",
                "fullpath": "\/volume1\/web\/firme\/templates\/admin\/fonts\/glyphicons-halflings-regular.woff2",
                "basename": "glyphicons-halflings-regular.woff2",
                "filename": "glyphicons-halflings-regular",
                "extension": "woff2"
            },
            "\/volume1\/web\/firme\/templates\/admin\/fonts\/glyphicons-halflings-regular.woff": {
                "original": "\/fonts\/glyphicons-halflings-regular.woff",
                "resources": "\/resources\/admin\/fonts\/glyphicons-halflings-regular.woff",
                "rsrc": "\/rsrc\/admin\/fonts\/glyphicons-halflings-regular.woff",
                "fullpath": "\/volume1\/web\/firme\/templates\/admin\/fonts\/glyphicons-halflings-regular.woff",
                "basename": "glyphicons-halflings-regular.woff",
                "filename": "glyphicons-halflings-regular",
                "extension": "woff"
            },
            "\/volume1\/web\/firme\/templates\/admin\/fonts\/glyphicons-halflings-regular.ttf": {
                "original": "\/fonts\/glyphicons-halflings-regular.ttf",
                "resources": "\/resources\/admin\/fonts\/glyphicons-halflings-regular.ttf",
                "rsrc": "\/rsrc\/admin\/fonts\/glyphicons-halflings-regular.ttf",
                "fullpath": "\/volume1\/web\/firme\/templates\/admin\/fonts\/glyphicons-halflings-regular.ttf",
                "basename": "glyphicons-halflings-regular.ttf",
                "filename": "glyphicons-halflings-regular",
                "extension": "ttf"
            },
            "\/volume1\/web\/firme\/templates\/admin\/fonts\/typicons.eot": {
                "original": "\/fonts\/typicons.eot",
                "resources": "\/resources\/admin\/fonts\/typicons.eot",
                "rsrc": "\/rsrc\/admin\/fonts\/typicons.eot",
                "fullpath": "\/volume1\/web\/firme\/templates\/admin\/fonts\/typicons.eot",
                "basename": "typicons.eot",
                "filename": "typicons",
                "extension": "eot"
            },
            "\/volume1\/web\/firme\/templates\/admin\/fonts\/typicons.woff": {
                "original": "\/fonts\/typicons.woff",
                "resources": "\/resources\/admin\/fonts\/typicons.woff",
                "rsrc": "\/rsrc\/admin\/fonts\/typicons.woff",
                "fullpath": "\/volume1\/web\/firme\/templates\/admin\/fonts\/typicons.woff",
                "basename": "typicons.woff",
                "filename": "typicons",
                "extension": "woff"
            },
            "\/volume1\/web\/firme\/templates\/admin\/fonts\/typicons.ttf": {
                "original": "\/fonts\/typicons.ttf",
                "resources": "\/resources\/admin\/fonts\/typicons.ttf",
                "rsrc": "\/rsrc\/admin\/fonts\/typicons.ttf",
                "fullpath": "\/volume1\/web\/firme\/templates\/admin\/fonts\/typicons.ttf",
                "basename": "typicons.ttf",
                "filename": "typicons",
                "extension": "ttf"
            },
            "\/volume1\/web\/firme\/templates\/admin\/fonts\/fontawesome-webfont.eot": {
                "original": "\/fonts\/fontawesome-webfont.eot",
                "resources": "\/resources\/admin\/fonts\/fontawesome-webfont.eot",
                "rsrc": "\/rsrc\/admin\/fonts\/fontawesome-webfont.eot",
                "fullpath": "\/volume1\/web\/firme\/templates\/admin\/fonts\/fontawesome-webfont.eot",
                "basename": "fontawesome-webfont.eot",
                "filename": "fontawesome-webfont",
                "extension": "eot"
            },
            "\/volume1\/web\/firme\/templates\/admin\/fonts\/fontawesome-webfont.woff2": {
                "original": "\/fonts\/fontawesome-webfont.woff2",
                "resources": "\/resources\/admin\/fonts\/fontawesome-webfont.woff2",
                "rsrc": "\/rsrc\/admin\/fonts\/fontawesome-webfont.woff2",
                "fullpath": "\/volume1\/web\/firme\/templates\/admin\/fonts\/fontawesome-webfont.woff2",
                "basename": "fontawesome-webfont.woff2",
                "filename": "fontawesome-webfont",
                "extension": "woff2"
            },
            "\/volume1\/web\/firme\/templates\/admin\/fonts\/fontawesome-webfont.woff": {
                "original": "\/fonts\/fontawesome-webfont.woff",
                "resources": "\/resources\/admin\/fonts\/fontawesome-webfont.woff",
                "rsrc": "\/rsrc\/admin\/fonts\/fontawesome-webfont.woff",
                "fullpath": "\/volume1\/web\/firme\/templates\/admin\/fonts\/fontawesome-webfont.woff",
                "basename": "fontawesome-webfont.woff",
                "filename": "fontawesome-webfont",
                "extension": "woff"
            },
            "\/volume1\/web\/firme\/templates\/admin\/fonts\/fontawesome-webfont.ttf": {
                "original": "\/fonts\/fontawesome-webfont.ttf",
                "resources": "\/resources\/admin\/fonts\/fontawesome-webfont.ttf",
                "rsrc": "\/rsrc\/admin\/fonts\/fontawesome-webfont.ttf",
                "fullpath": "\/volume1\/web\/firme\/templates\/admin\/fonts\/fontawesome-webfont.ttf",
                "basename": "fontawesome-webfont.ttf",
                "filename": "fontawesome-webfont",
                "extension": "ttf"
            },
            "\/volume1\/web\/firme\/templates\/admin\/fonts\/fontawesome-webfont.svg": {
                "original": "\/fonts\/fontawesome-webfont.svg",
                "resources": "\/resources\/admin\/fonts\/fontawesome-webfont.svg",
                "rsrc": "\/rsrc\/admin\/fonts\/fontawesome-webfont.svg",
                "fullpath": "\/volume1\/web\/firme\/templates\/admin\/fonts\/fontawesome-webfont.svg",
                "basename": "fontawesome-webfont.svg",
                "filename": "fontawesome-webfont",
                "extension": "svg"
            },
            "\/volume1\/web\/firme\/templates\/admin\/fonts\/themify.eot": {
                "original": "\/fonts\/themify.eot",
                "resources": "\/resources\/admin\/fonts\/themify.eot",
                "rsrc": "\/rsrc\/admin\/fonts\/themify.eot",
                "fullpath": "\/volume1\/web\/firme\/templates\/admin\/fonts\/themify.eot",
                "basename": "themify.eot",
                "filename": "themify",
                "extension": "eot"
            },
            "\/volume1\/web\/firme\/templates\/admin\/fonts\/themify.woff": {
                "original": "\/fonts\/themify.woff",
                "resources": "\/resources\/admin\/fonts\/themify.woff",
                "rsrc": "\/rsrc\/admin\/fonts\/themify.woff",
                "fullpath": "\/volume1\/web\/firme\/templates\/admin\/fonts\/themify.woff",
                "basename": "themify.woff",
                "filename": "themify",
                "extension": "woff"
            },
            "\/volume1\/web\/firme\/templates\/admin\/fonts\/themify.ttf": {
                "original": "\/fonts\/themify.ttf",
                "resources": "\/resources\/admin\/fonts\/themify.ttf",
                "rsrc": "\/rsrc\/admin\/fonts\/themify.ttf",
                "fullpath": "\/volume1\/web\/firme\/templates\/admin\/fonts\/themify.ttf",
                "basename": "themify.ttf",
                "filename": "themify",
                "extension": "ttf"
            },
            "\/volume1\/web\/firme\/templates\/admin\/fonts\/themify.svg": {
                "original": "\/fonts\/themify.svg",
                "resources": "\/resources\/admin\/fonts\/themify.svg",
                "rsrc": "\/rsrc\/admin\/fonts\/themify.svg",
                "fullpath": "\/volume1\/web\/firme\/templates\/admin\/fonts\/themify.svg",
                "basename": "themify.svg",
                "filename": "themify",
                "extension": "svg"
            },
            "\/volume1\/web\/firme\/templates\/admin\/fonts\/Material-Design-Iconic-Font.eot": {
                "original": "\/fonts\/Material-Design-Iconic-Font.eot",
                "resources": "\/resources\/admin\/fonts\/Material-Design-Iconic-Font.eot",
                "rsrc": "\/rsrc\/admin\/fonts\/Material-Design-Iconic-Font.eot",
                "fullpath": "\/volume1\/web\/firme\/templates\/admin\/fonts\/Material-Design-Iconic-Font.eot",
                "basename": "Material-Design-Iconic-Font.eot",
                "filename": "Material-Design-Iconic-Font",
                "extension": "eot"
            },
            "\/volume1\/web\/firme\/templates\/admin\/fonts\/Material-Design-Iconic-Font.woff": {
                "original": "\/fonts\/Material-Design-Iconic-Font.woff",
                "resources": "\/resources\/admin\/fonts\/Material-Design-Iconic-Font.woff",
                "rsrc": "\/rsrc\/admin\/fonts\/Material-Design-Iconic-Font.woff",
                "fullpath": "\/volume1\/web\/firme\/templates\/admin\/fonts\/Material-Design-Iconic-Font.woff",
                "basename": "Material-Design-Iconic-Font.woff",
                "filename": "Material-Design-Iconic-Font",
                "extension": "woff"
            },
            "\/volume1\/web\/firme\/templates\/admin\/fonts\/Material-Design-Iconic-Font.ttf": {
                "original": "\/fonts\/Material-Design-Iconic-Font.ttf",
                "resources": "\/resources\/admin\/fonts\/Material-Design-Iconic-Font.ttf",
                "rsrc": "\/rsrc\/admin\/fonts\/Material-Design-Iconic-Font.ttf",
                "fullpath": "\/volume1\/web\/firme\/templates\/admin\/fonts\/Material-Design-Iconic-Font.ttf",
                "basename": "Material-Design-Iconic-Font.ttf",
                "filename": "Material-Design-Iconic-Font",
                "extension": "ttf"
            },
            "\/volume1\/web\/firme\/templates\/admin\/fonts\/Material-Design-Iconic-Font.svg": {
                "original": "\/fonts\/Material-Design-Iconic-Font.svg",
                "resources": "\/resources\/admin\/fonts\/Material-Design-Iconic-Font.svg",
                "rsrc": "\/rsrc\/admin\/fonts\/Material-Design-Iconic-Font.svg",
                "fullpath": "\/volume1\/web\/firme\/templates\/admin\/fonts\/Material-Design-Iconic-Font.svg",
                "basename": "Material-Design-Iconic-Font.svg",
                "filename": "Material-Design-Iconic-Font",
                "extension": "svg"
            },
            "\/volume1\/web\/firme\/templates\/admin\/fonts\/Simple-Line-Icons.eot": {
                "original": "\/fonts\/Simple-Line-Icons.eot",
                "resources": "\/resources\/admin\/fonts\/Simple-Line-Icons.eot",
                "rsrc": "\/rsrc\/admin\/fonts\/Simple-Line-Icons.eot",
                "fullpath": "\/volume1\/web\/firme\/templates\/admin\/fonts\/Simple-Line-Icons.eot",
                "basename": "Simple-Line-Icons.eot",
                "filename": "Simple-Line-Icons",
                "extension": "eot"
            },
            "\/volume1\/web\/firme\/templates\/admin\/fonts\/Simple-Line-Icons.ttf": {
                "original": "\/fonts\/Simple-Line-Icons.ttf",
                "resources": "\/resources\/admin\/fonts\/Simple-Line-Icons.ttf",
                "rsrc": "\/rsrc\/admin\/fonts\/Simple-Line-Icons.ttf",
                "fullpath": "\/volume1\/web\/firme\/templates\/admin\/fonts\/Simple-Line-Icons.ttf",
                "basename": "Simple-Line-Icons.ttf",
                "filename": "Simple-Line-Icons",
                "extension": "ttf"
            },
            "\/volume1\/web\/firme\/templates\/admin\/fonts\/Simple-Line-Icons.woff2": {
                "original": "\/fonts\/Simple-Line-Icons.woff2",
                "resources": "\/resources\/admin\/fonts\/Simple-Line-Icons.woff2",
                "rsrc": "\/rsrc\/admin\/fonts\/Simple-Line-Icons.woff2",
                "fullpath": "\/volume1\/web\/firme\/templates\/admin\/fonts\/Simple-Line-Icons.woff2",
                "basename": "Simple-Line-Icons.woff2",
                "filename": "Simple-Line-Icons",
                "extension": "woff2"
            },
            "\/volume1\/web\/firme\/templates\/admin\/fonts\/Simple-Line-Icons.woff": {
                "original": "\/fonts\/Simple-Line-Icons.woff",
                "resources": "\/resources\/admin\/fonts\/Simple-Line-Icons.woff",
                "rsrc": "\/rsrc\/admin\/fonts\/Simple-Line-Icons.woff",
                "fullpath": "\/volume1\/web\/firme\/templates\/admin\/fonts\/Simple-Line-Icons.woff",
                "basename": "Simple-Line-Icons.woff",
                "filename": "Simple-Line-Icons",
                "extension": "woff"
            },
            "\/volume1\/web\/firme\/templates\/admin\/fonts\/Simple-Line-Icons.svg": {
                "original": "\/fonts\/Simple-Line-Icons.svg",
                "resources": "\/resources\/admin\/fonts\/Simple-Line-Icons.svg",
                "rsrc": "\/rsrc\/admin\/fonts\/Simple-Line-Icons.svg",
                "fullpath": "\/volume1\/web\/firme\/templates\/admin\/fonts\/Simple-Line-Icons.svg",
                "basename": "Simple-Line-Icons.svg",
                "filename": "Simple-Line-Icons",
                "extension": "svg"
            },
            "\/volume1\/web\/firme\/templates\/admin\/fonts\/ionicons.eot": {
                "original": "\/fonts\/ionicons.eot",
                "resources": "\/resources\/admin\/fonts\/ionicons.eot",
                "rsrc": "\/rsrc\/admin\/fonts\/ionicons.eot",
                "fullpath": "\/volume1\/web\/firme\/templates\/admin\/fonts\/ionicons.eot",
                "basename": "ionicons.eot",
                "filename": "ionicons",
                "extension": "eot"
            },
            "\/volume1\/web\/firme\/templates\/admin\/fonts\/ionicons.ttf": {
                "original": "\/fonts\/ionicons.ttf",
                "resources": "\/resources\/admin\/fonts\/ionicons.ttf",
                "rsrc": "\/rsrc\/admin\/fonts\/ionicons.ttf",
                "fullpath": "\/volume1\/web\/firme\/templates\/admin\/fonts\/ionicons.ttf",
                "basename": "ionicons.ttf",
                "filename": "ionicons",
                "extension": "ttf"
            },
            "\/volume1\/web\/firme\/templates\/admin\/fonts\/ionicons.woff": {
                "original": "\/fonts\/ionicons.woff",
                "resources": "\/resources\/admin\/fonts\/ionicons.woff",
                "rsrc": "\/rsrc\/admin\/fonts\/ionicons.woff",
                "fullpath": "\/volume1\/web\/firme\/templates\/admin\/fonts\/ionicons.woff",
                "basename": "ionicons.woff",
                "filename": "ionicons",
                "extension": "woff"
            },
            "\/volume1\/web\/firme\/templates\/admin\/fonts\/ionicons.svg": {
                "original": "\/fonts\/ionicons.svg",
                "resources": "\/resources\/admin\/fonts\/ionicons.svg",
                "rsrc": "\/rsrc\/admin\/fonts\/ionicons.svg",
                "fullpath": "\/volume1\/web\/firme\/templates\/admin\/fonts\/ionicons.svg",
                "basename": "ionicons.svg",
                "filename": "ionicons",
                "extension": "svg"
            },
            "\/volume1\/web\/firme\/templates\/admin\/fonts\/weathericons-regular-webfont.eot": {
                "original": "\/fonts\/weathericons-regular-webfont.eot",
                "resources": "\/resources\/admin\/fonts\/weathericons-regular-webfont.eot",
                "rsrc": "\/rsrc\/admin\/fonts\/weathericons-regular-webfont.eot",
                "fullpath": "\/volume1\/web\/firme\/templates\/admin\/fonts\/weathericons-regular-webfont.eot",
                "basename": "weathericons-regular-webfont.eot",
                "filename": "weathericons-regular-webfont",
                "extension": "eot"
            },
            "\/volume1\/web\/firme\/templates\/admin\/fonts\/weathericons-regular-webfont.woff2": {
                "original": "\/fonts\/weathericons-regular-webfont.woff2",
                "resources": "\/resources\/admin\/fonts\/weathericons-regular-webfont.woff2",
                "rsrc": "\/rsrc\/admin\/fonts\/weathericons-regular-webfont.woff2",
                "fullpath": "\/volume1\/web\/firme\/templates\/admin\/fonts\/weathericons-regular-webfont.woff2",
                "basename": "weathericons-regular-webfont.woff2",
                "filename": "weathericons-regular-webfont",
                "extension": "woff2"
            },
            "\/volume1\/web\/firme\/templates\/admin\/fonts\/weathericons-regular-webfont.woff": {
                "original": "\/fonts\/weathericons-regular-webfont.woff",
                "resources": "\/resources\/admin\/fonts\/weathericons-regular-webfont.woff",
                "rsrc": "\/rsrc\/admin\/fonts\/weathericons-regular-webfont.woff",
                "fullpath": "\/volume1\/web\/firme\/templates\/admin\/fonts\/weathericons-regular-webfont.woff",
                "basename": "weathericons-regular-webfont.woff",
                "filename": "weathericons-regular-webfont",
                "extension": "woff"
            },
            "\/volume1\/web\/firme\/templates\/admin\/fonts\/weathericons-regular-webfont.ttf": {
                "original": "\/fonts\/weathericons-regular-webfont.ttf",
                "resources": "\/resources\/admin\/fonts\/weathericons-regular-webfont.ttf",
                "rsrc": "\/rsrc\/admin\/fonts\/weathericons-regular-webfont.ttf",
                "fullpath": "\/volume1\/web\/firme\/templates\/admin\/fonts\/weathericons-regular-webfont.ttf",
                "basename": "weathericons-regular-webfont.ttf",
                "filename": "weathericons-regular-webfont",
                "extension": "ttf"
            },
            "\/volume1\/web\/firme\/templates\/frontend\/fonts\/fontawesome-webfont.eot": {
                "original": "\/fonts\/fontawesome-webfont.eot",
                "resources": "\/resources\/frontend\/fonts\/fontawesome-webfont.eot",
                "rsrc": "\/rsrc\/frontend\/fonts\/fontawesome-webfont.eot",
                "fullpath": "\/volume1\/web\/firme\/templates\/frontend\/fonts\/fontawesome-webfont.eot",
                "basename": "fontawesome-webfont.eot",
                "filename": "fontawesome-webfont",
                "extension": "eot"
            },
            "\/volume1\/web\/firme\/templates\/frontend\/fonts\/fontawesome-webfont.woff": {
                "original": "\/fonts\/fontawesome-webfont.woff",
                "resources": "\/resources\/frontend\/fonts\/fontawesome-webfont.woff",
                "rsrc": "\/rsrc\/frontend\/fonts\/fontawesome-webfont.woff",
                "fullpath": "\/volume1\/web\/firme\/templates\/frontend\/fonts\/fontawesome-webfont.woff",
                "basename": "fontawesome-webfont.woff",
                "filename": "fontawesome-webfont",
                "extension": "woff"
            },
            "\/volume1\/web\/firme\/templates\/frontend\/fonts\/fontawesome-webfont.ttf": {
                "original": "\/fonts\/fontawesome-webfont.ttf",
                "resources": "\/resources\/frontend\/fonts\/fontawesome-webfont.ttf",
                "rsrc": "\/rsrc\/frontend\/fonts\/fontawesome-webfont.ttf",
                "fullpath": "\/volume1\/web\/firme\/templates\/frontend\/fonts\/fontawesome-webfont.ttf",
                "basename": "fontawesome-webfont.ttf",
                "filename": "fontawesome-webfont",
                "extension": "ttf"
            },
            "\/volume1\/web\/firme\/templates\/frontend\/fonts\/fontawesome-webfont.svg": {
                "original": "\/fonts\/fontawesome-webfont.svg",
                "resources": "\/resources\/frontend\/fonts\/fontawesome-webfont.svg",
                "rsrc": "\/rsrc\/frontend\/fonts\/fontawesome-webfont.svg",
                "fullpath": "\/volume1\/web\/firme\/templates\/frontend\/fonts\/fontawesome-webfont.svg",
                "basename": "fontawesome-webfont.svg",
                "filename": "fontawesome-webfont",
                "extension": "svg"
            },
            "\/volume1\/web\/firme\/templates\/frontend\/img\/feature-bg.jpg": {
                "original": "\/img\/feature-bg.jpg",
                "resources": "\/resources\/resize\/frontend\/img\/feature-bg.jpg",
                "rsrc": "\/rsrc\/resize\/frontend\/img\/feature-bg.jpg",
                "fullpath": "\/volume1\/web\/firme\/templates\/frontend\/img\/feature-bg.jpg",
                "basename": "feature-bg.jpg",
                "filename": "feature-bg",
                "extension": "jpg"
            },
            "\/volume1\/web\/firme\/templates\/frontend\/img\/calssifieds_bg.jpg": {
                "original": "\/img\/calssifieds_bg.jpg",
                "resources": "\/resources\/resize\/frontend\/img\/calssifieds_bg.jpg",
                "rsrc": "\/rsrc\/resize\/frontend\/img\/calssifieds_bg.jpg",
                "fullpath": "\/volume1\/web\/firme\/templates\/frontend\/img\/calssifieds_bg.jpg",
                "basename": "calssifieds_bg.jpg",
                "filename": "calssifieds_bg",
                "extension": "jpg"
            },
            "\/volume1\/web\/firme\/templates\/frontend\/img\/register_bg.jpg": {
                "original": "\/img\/register_bg.jpg",
                "resources": "\/resources\/resize\/frontend\/img\/register_bg.jpg",
                "rsrc": "\/rsrc\/resize\/frontend\/img\/register_bg.jpg",
                "fullpath": "\/volume1\/web\/firme\/templates\/frontend\/img\/register_bg.jpg",
                "basename": "register_bg.jpg",
                "filename": "register_bg",
                "extension": "jpg"
            },
            "\/volume1\/web\/firme\/templates\/frontend\/img\/about-us-heading-bg.jpg": {
                "original": "\/img\/about-us-heading-bg.jpg",
                "resources": "\/resources\/resize\/frontend\/img\/about-us-heading-bg.jpg",
                "rsrc": "\/rsrc\/resize\/frontend\/img\/about-us-heading-bg.jpg",
                "fullpath": "\/volume1\/web\/firme\/templates\/frontend\/img\/about-us-heading-bg.jpg",
                "basename": "about-us-heading-bg.jpg",
                "filename": "about-us-heading-bg",
                "extension": "jpg"
            },
            "\/volume1\/web\/firme\/templates\/frontend\/img\/contact-us-heading-bg.jpg": {
                "original": "\/img\/contact-us-heading-bg.jpg",
                "resources": "\/resources\/resize\/frontend\/img\/contact-us-heading-bg.jpg",
                "rsrc": "\/rsrc\/resize\/frontend\/img\/contact-us-heading-bg.jpg",
                "fullpath": "\/volume1\/web\/firme\/templates\/frontend\/img\/contact-us-heading-bg.jpg",
                "basename": "contact-us-heading-bg.jpg",
                "filename": "contact-us-heading-bg",
                "extension": "jpg"
            },
            "\/volume1\/web\/firme\/templates\/frontend\/img\/price-listing-heading-bg.jpg": {
                "original": "\/img\/price-listing-heading-bg.jpg",
                "resources": "\/resources\/resize\/frontend\/img\/price-listing-heading-bg.jpg",
                "rsrc": "\/rsrc\/resize\/frontend\/img\/price-listing-heading-bg.jpg",
                "fullpath": "\/volume1\/web\/firme\/templates\/frontend\/img\/price-listing-heading-bg.jpg",
                "basename": "price-listing-heading-bg.jpg",
                "filename": "price-listing-heading-bg",
                "extension": "jpg"
            },
            "\/volume1\/web\/firme\/templates\/frontend\/img\/blog-list-heading-bg.jpg": {
                "original": "\/img\/blog-list-heading-bg.jpg",
                "resources": "\/resources\/resize\/frontend\/img\/blog-list-heading-bg.jpg",
                "rsrc": "\/rsrc\/resize\/frontend\/img\/blog-list-heading-bg.jpg",
                "fullpath": "\/volume1\/web\/firme\/templates\/frontend\/img\/blog-list-heading-bg.jpg",
                "basename": "blog-list-heading-bg.jpg",
                "filename": "blog-list-heading-bg",
                "extension": "jpg"
            },
            "\/volume1\/web\/firme\/templates\/frontend\/img\/company-heading-bg.jpg": {
                "original": "\/img\/company-heading-bg.jpg",
                "resources": "\/resources\/resize\/frontend\/img\/company-heading-bg.jpg",
                "rsrc": "\/rsrc\/resize\/frontend\/img\/company-heading-bg.jpg",
                "fullpath": "\/volume1\/web\/firme\/templates\/frontend\/img\/company-heading-bg.jpg",
                "basename": "company-heading-bg.jpg",
                "filename": "company-heading-bg",
                "extension": "jpg"
            },
            "\/volume1\/web\/firme\/templates\/frontend\/img\/footer_logo_bg.jpg": {
                "original": "\/img\/footer_logo_bg.jpg",
                "resources": "\/resources\/resize\/frontend\/img\/footer_logo_bg.jpg",
                "rsrc": "\/rsrc\/resize\/frontend\/img\/footer_logo_bg.jpg",
                "fullpath": "\/volume1\/web\/firme\/templates\/frontend\/img\/footer_logo_bg.jpg",
                "basename": "footer_logo_bg.jpg",
                "filename": "footer_logo_bg",
                "extension": "jpg"
            },
            "\/volume1\/web\/firme\/templates\/frontend\/AjaxLoader.gif": {
                "original": "AjaxLoader.gif",
                "resources": "\/resources\/resize\/frontend\/AjaxLoader.gif",
                "rsrc": "\/rsrc\/resize\/frontend\/AjaxLoader.gif",
                "fullpath": "\/volume1\/web\/firme\/templates\/frontend\/AjaxLoader.gif",
                "basename": "AjaxLoader.gif",
                "filename": "AjaxLoader",
                "extension": "gif"
            },
            "\/volume1\/web\/firme\/templates\/frontend\/grabbing.png": {
                "original": "grabbing.png",
                "resources": "\/resources\/resize\/frontend\/grabbing.png",
                "rsrc": "\/rsrc\/resize\/frontend\/grabbing.png",
                "fullpath": "\/volume1\/web\/firme\/templates\/frontend\/grabbing.png",
                "basename": "grabbing.png",
                "filename": "grabbing",
                "extension": "png"
            },
            "\/home\/pitylee\/fullcomp\/public_html\/templates\/admin\/fonts\/glyphicons-halflings-regular.eot": {
                "original": "\/fonts\/glyphicons-halflings-regular.eot",
                "resources": "\/resources\/admin\/fonts\/glyphicons-halflings-regular.eot",
                "rsrc": "\/rsrc\/admin\/fonts\/glyphicons-halflings-regular.eot",
                "fullpath": "\/home\/pitylee\/fullcomp\/public_html\/templates\/admin\/fonts\/glyphicons-halflings-regular.eot",
                "basename": "glyphicons-halflings-regular.eot",
                "filename": "glyphicons-halflings-regular",
                "extension": "eot"
            },
            "\/home\/pitylee\/fullcomp\/public_html\/templates\/admin\/fonts\/glyphicons-halflings-regular.woff2": {
                "original": "\/fonts\/glyphicons-halflings-regular.woff2",
                "resources": "\/resources\/admin\/fonts\/glyphicons-halflings-regular.woff2",
                "rsrc": "\/rsrc\/admin\/fonts\/glyphicons-halflings-regular.woff2",
                "fullpath": "\/home\/pitylee\/fullcomp\/public_html\/templates\/admin\/fonts\/glyphicons-halflings-regular.woff2",
                "basename": "glyphicons-halflings-regular.woff2",
                "filename": "glyphicons-halflings-regular",
                "extension": "woff2"
            },
            "\/home\/pitylee\/fullcomp\/public_html\/templates\/admin\/fonts\/glyphicons-halflings-regular.woff": {
                "original": "\/fonts\/glyphicons-halflings-regular.woff",
                "resources": "\/resources\/admin\/fonts\/glyphicons-halflings-regular.woff",
                "rsrc": "\/rsrc\/admin\/fonts\/glyphicons-halflings-regular.woff",
                "fullpath": "\/home\/pitylee\/fullcomp\/public_html\/templates\/admin\/fonts\/glyphicons-halflings-regular.woff",
                "basename": "glyphicons-halflings-regular.woff",
                "filename": "glyphicons-halflings-regular",
                "extension": "woff"
            },
            "\/home\/pitylee\/fullcomp\/public_html\/templates\/admin\/fonts\/glyphicons-halflings-regular.ttf": {
                "original": "\/fonts\/glyphicons-halflings-regular.ttf",
                "resources": "\/resources\/admin\/fonts\/glyphicons-halflings-regular.ttf",
                "rsrc": "\/rsrc\/admin\/fonts\/glyphicons-halflings-regular.ttf",
                "fullpath": "\/home\/pitylee\/fullcomp\/public_html\/templates\/admin\/fonts\/glyphicons-halflings-regular.ttf",
                "basename": "glyphicons-halflings-regular.ttf",
                "filename": "glyphicons-halflings-regular",
                "extension": "ttf"
            },
            "\/home\/pitylee\/fullcomp\/public_html\/templates\/admin\/images\/download.png": {
                "original": "\/images\/download.png",
                "resources": "\/resources\/resize\/admin\/images\/download.png",
                "rsrc": "\/rsrc\/resize\/admin\/images\/download.png",
                "fullpath": "\/home\/pitylee\/fullcomp\/public_html\/templates\/admin\/images\/download.png",
                "basename": "download.png",
                "filename": "download",
                "extension": "png"
            },
            "\/home\/pitylee\/fullcomp\/public_html\/templates\/admin\/images\/big\/bg.jpg": {
                "original": "\/images\/big\/bg.jpg",
                "resources": "\/resources\/resize\/admin\/images\/big\/bg.jpg",
                "rsrc": "\/rsrc\/resize\/admin\/images\/big\/bg.jpg",
                "fullpath": "\/home\/pitylee\/fullcomp\/public_html\/templates\/admin\/images\/big\/bg.jpg",
                "basename": "bg.jpg",
                "filename": "bg",
                "extension": "jpg"
            },
            "\/home\/pitylee\/fullcomp\/public_html\/templates\/admin\/fonts\/typicons.eot": {
                "original": "\/fonts\/typicons.eot",
                "resources": "\/resources\/admin\/fonts\/typicons.eot",
                "rsrc": "\/rsrc\/admin\/fonts\/typicons.eot",
                "fullpath": "\/home\/pitylee\/fullcomp\/public_html\/templates\/admin\/fonts\/typicons.eot",
                "basename": "typicons.eot",
                "filename": "typicons",
                "extension": "eot"
            },
            "\/home\/pitylee\/fullcomp\/public_html\/templates\/admin\/fonts\/typicons.woff": {
                "original": "\/fonts\/typicons.woff",
                "resources": "\/resources\/admin\/fonts\/typicons.woff",
                "rsrc": "\/rsrc\/admin\/fonts\/typicons.woff",
                "fullpath": "\/home\/pitylee\/fullcomp\/public_html\/templates\/admin\/fonts\/typicons.woff",
                "basename": "typicons.woff",
                "filename": "typicons",
                "extension": "woff"
            },
            "\/home\/pitylee\/fullcomp\/public_html\/templates\/admin\/fonts\/typicons.ttf": {
                "original": "\/fonts\/typicons.ttf",
                "resources": "\/resources\/admin\/fonts\/typicons.ttf",
                "rsrc": "\/rsrc\/admin\/fonts\/typicons.ttf",
                "fullpath": "\/home\/pitylee\/fullcomp\/public_html\/templates\/admin\/fonts\/typicons.ttf",
                "basename": "typicons.ttf",
                "filename": "typicons",
                "extension": "ttf"
            },
            "\/home\/pitylee\/fullcomp\/public_html\/templates\/admin\/fonts\/fontawesome-webfont.eot": {
                "original": "\/fonts\/fontawesome-webfont.eot",
                "resources": "\/resources\/admin\/fonts\/fontawesome-webfont.eot",
                "rsrc": "\/rsrc\/admin\/fonts\/fontawesome-webfont.eot",
                "fullpath": "\/home\/pitylee\/fullcomp\/public_html\/templates\/admin\/fonts\/fontawesome-webfont.eot",
                "basename": "fontawesome-webfont.eot",
                "filename": "fontawesome-webfont",
                "extension": "eot"
            },
            "\/home\/pitylee\/fullcomp\/public_html\/templates\/admin\/fonts\/fontawesome-webfont.woff2": {
                "original": "\/fonts\/fontawesome-webfont.woff2",
                "resources": "\/resources\/admin\/fonts\/fontawesome-webfont.woff2",
                "rsrc": "\/rsrc\/admin\/fonts\/fontawesome-webfont.woff2",
                "fullpath": "\/home\/pitylee\/fullcomp\/public_html\/templates\/admin\/fonts\/fontawesome-webfont.woff2",
                "basename": "fontawesome-webfont.woff2",
                "filename": "fontawesome-webfont",
                "extension": "woff2"
            },
            "\/home\/pitylee\/fullcomp\/public_html\/templates\/admin\/fonts\/fontawesome-webfont.woff": {
                "original": "\/fonts\/fontawesome-webfont.woff",
                "resources": "\/resources\/admin\/fonts\/fontawesome-webfont.woff",
                "rsrc": "\/rsrc\/admin\/fonts\/fontawesome-webfont.woff",
                "fullpath": "\/home\/pitylee\/fullcomp\/public_html\/templates\/admin\/fonts\/fontawesome-webfont.woff",
                "basename": "fontawesome-webfont.woff",
                "filename": "fontawesome-webfont",
                "extension": "woff"
            },
            "\/home\/pitylee\/fullcomp\/public_html\/templates\/admin\/fonts\/fontawesome-webfont.ttf": {
                "original": "\/fonts\/fontawesome-webfont.ttf",
                "resources": "\/resources\/admin\/fonts\/fontawesome-webfont.ttf",
                "rsrc": "\/rsrc\/admin\/fonts\/fontawesome-webfont.ttf",
                "fullpath": "\/home\/pitylee\/fullcomp\/public_html\/templates\/admin\/fonts\/fontawesome-webfont.ttf",
                "basename": "fontawesome-webfont.ttf",
                "filename": "fontawesome-webfont",
                "extension": "ttf"
            },
            "\/home\/pitylee\/fullcomp\/public_html\/templates\/admin\/fonts\/fontawesome-webfont.svg": {
                "original": "\/fonts\/fontawesome-webfont.svg",
                "resources": "\/resources\/admin\/fonts\/fontawesome-webfont.svg",
                "rsrc": "\/rsrc\/admin\/fonts\/fontawesome-webfont.svg",
                "fullpath": "\/home\/pitylee\/fullcomp\/public_html\/templates\/admin\/fonts\/fontawesome-webfont.svg",
                "basename": "fontawesome-webfont.svg",
                "filename": "fontawesome-webfont",
                "extension": "svg"
            },
            "\/home\/pitylee\/fullcomp\/public_html\/templates\/admin\/fonts\/themify.eot": {
                "original": "\/fonts\/themify.eot",
                "resources": "\/resources\/admin\/fonts\/themify.eot",
                "rsrc": "\/rsrc\/admin\/fonts\/themify.eot",
                "fullpath": "\/home\/pitylee\/fullcomp\/public_html\/templates\/admin\/fonts\/themify.eot",
                "basename": "themify.eot",
                "filename": "themify",
                "extension": "eot"
            },
            "\/home\/pitylee\/fullcomp\/public_html\/templates\/admin\/fonts\/themify.woff": {
                "original": "\/fonts\/themify.woff",
                "resources": "\/resources\/admin\/fonts\/themify.woff",
                "rsrc": "\/rsrc\/admin\/fonts\/themify.woff",
                "fullpath": "\/home\/pitylee\/fullcomp\/public_html\/templates\/admin\/fonts\/themify.woff",
                "basename": "themify.woff",
                "filename": "themify",
                "extension": "woff"
            },
            "\/home\/pitylee\/fullcomp\/public_html\/templates\/admin\/fonts\/themify.ttf": {
                "original": "\/fonts\/themify.ttf",
                "resources": "\/resources\/admin\/fonts\/themify.ttf",
                "rsrc": "\/rsrc\/admin\/fonts\/themify.ttf",
                "fullpath": "\/home\/pitylee\/fullcomp\/public_html\/templates\/admin\/fonts\/themify.ttf",
                "basename": "themify.ttf",
                "filename": "themify",
                "extension": "ttf"
            },
            "\/home\/pitylee\/fullcomp\/public_html\/templates\/admin\/fonts\/themify.svg": {
                "original": "\/fonts\/themify.svg",
                "resources": "\/resources\/admin\/fonts\/themify.svg",
                "rsrc": "\/rsrc\/admin\/fonts\/themify.svg",
                "fullpath": "\/home\/pitylee\/fullcomp\/public_html\/templates\/admin\/fonts\/themify.svg",
                "basename": "themify.svg",
                "filename": "themify",
                "extension": "svg"
            },
            "\/home\/pitylee\/fullcomp\/public_html\/templates\/admin\/fonts\/Material-Design-Iconic-Font.eot": {
                "original": "\/fonts\/Material-Design-Iconic-Font.eot",
                "resources": "\/resources\/admin\/fonts\/Material-Design-Iconic-Font.eot",
                "rsrc": "\/rsrc\/admin\/fonts\/Material-Design-Iconic-Font.eot",
                "fullpath": "\/home\/pitylee\/fullcomp\/public_html\/templates\/admin\/fonts\/Material-Design-Iconic-Font.eot",
                "basename": "Material-Design-Iconic-Font.eot",
                "filename": "Material-Design-Iconic-Font",
                "extension": "eot"
            },
            "\/home\/pitylee\/fullcomp\/public_html\/templates\/admin\/fonts\/Material-Design-Iconic-Font.woff": {
                "original": "\/fonts\/Material-Design-Iconic-Font.woff",
                "resources": "\/resources\/admin\/fonts\/Material-Design-Iconic-Font.woff",
                "rsrc": "\/rsrc\/admin\/fonts\/Material-Design-Iconic-Font.woff",
                "fullpath": "\/home\/pitylee\/fullcomp\/public_html\/templates\/admin\/fonts\/Material-Design-Iconic-Font.woff",
                "basename": "Material-Design-Iconic-Font.woff",
                "filename": "Material-Design-Iconic-Font",
                "extension": "woff"
            },
            "\/home\/pitylee\/fullcomp\/public_html\/templates\/admin\/fonts\/Material-Design-Iconic-Font.ttf": {
                "original": "\/fonts\/Material-Design-Iconic-Font.ttf",
                "resources": "\/resources\/admin\/fonts\/Material-Design-Iconic-Font.ttf",
                "rsrc": "\/rsrc\/admin\/fonts\/Material-Design-Iconic-Font.ttf",
                "fullpath": "\/home\/pitylee\/fullcomp\/public_html\/templates\/admin\/fonts\/Material-Design-Iconic-Font.ttf",
                "basename": "Material-Design-Iconic-Font.ttf",
                "filename": "Material-Design-Iconic-Font",
                "extension": "ttf"
            },
            "\/home\/pitylee\/fullcomp\/public_html\/templates\/admin\/fonts\/Material-Design-Iconic-Font.svg": {
                "original": "\/fonts\/Material-Design-Iconic-Font.svg",
                "resources": "\/resources\/admin\/fonts\/Material-Design-Iconic-Font.svg",
                "rsrc": "\/rsrc\/admin\/fonts\/Material-Design-Iconic-Font.svg",
                "fullpath": "\/home\/pitylee\/fullcomp\/public_html\/templates\/admin\/fonts\/Material-Design-Iconic-Font.svg",
                "basename": "Material-Design-Iconic-Font.svg",
                "filename": "Material-Design-Iconic-Font",
                "extension": "svg"
            },
            "\/home\/pitylee\/fullcomp\/public_html\/templates\/admin\/fonts\/Simple-Line-Icons.eot": {
                "original": "\/fonts\/Simple-Line-Icons.eot",
                "resources": "\/resources\/admin\/fonts\/Simple-Line-Icons.eot",
                "rsrc": "\/rsrc\/admin\/fonts\/Simple-Line-Icons.eot",
                "fullpath": "\/home\/pitylee\/fullcomp\/public_html\/templates\/admin\/fonts\/Simple-Line-Icons.eot",
                "basename": "Simple-Line-Icons.eot",
                "filename": "Simple-Line-Icons",
                "extension": "eot"
            },
            "\/home\/pitylee\/fullcomp\/public_html\/templates\/admin\/fonts\/Simple-Line-Icons.ttf": {
                "original": "\/fonts\/Simple-Line-Icons.ttf",
                "resources": "\/resources\/admin\/fonts\/Simple-Line-Icons.ttf",
                "rsrc": "\/rsrc\/admin\/fonts\/Simple-Line-Icons.ttf",
                "fullpath": "\/home\/pitylee\/fullcomp\/public_html\/templates\/admin\/fonts\/Simple-Line-Icons.ttf",
                "basename": "Simple-Line-Icons.ttf",
                "filename": "Simple-Line-Icons",
                "extension": "ttf"
            },
            "\/home\/pitylee\/fullcomp\/public_html\/templates\/admin\/fonts\/Simple-Line-Icons.woff2": {
                "original": "\/fonts\/Simple-Line-Icons.woff2",
                "resources": "\/resources\/admin\/fonts\/Simple-Line-Icons.woff2",
                "rsrc": "\/rsrc\/admin\/fonts\/Simple-Line-Icons.woff2",
                "fullpath": "\/home\/pitylee\/fullcomp\/public_html\/templates\/admin\/fonts\/Simple-Line-Icons.woff2",
                "basename": "Simple-Line-Icons.woff2",
                "filename": "Simple-Line-Icons",
                "extension": "woff2"
            },
            "\/home\/pitylee\/fullcomp\/public_html\/templates\/admin\/fonts\/Simple-Line-Icons.woff": {
                "original": "\/fonts\/Simple-Line-Icons.woff",
                "resources": "\/resources\/admin\/fonts\/Simple-Line-Icons.woff",
                "rsrc": "\/rsrc\/admin\/fonts\/Simple-Line-Icons.woff",
                "fullpath": "\/home\/pitylee\/fullcomp\/public_html\/templates\/admin\/fonts\/Simple-Line-Icons.woff",
                "basename": "Simple-Line-Icons.woff",
                "filename": "Simple-Line-Icons",
                "extension": "woff"
            },
            "\/home\/pitylee\/fullcomp\/public_html\/templates\/admin\/fonts\/Simple-Line-Icons.svg": {
                "original": "\/fonts\/Simple-Line-Icons.svg",
                "resources": "\/resources\/admin\/fonts\/Simple-Line-Icons.svg",
                "rsrc": "\/rsrc\/admin\/fonts\/Simple-Line-Icons.svg",
                "fullpath": "\/home\/pitylee\/fullcomp\/public_html\/templates\/admin\/fonts\/Simple-Line-Icons.svg",
                "basename": "Simple-Line-Icons.svg",
                "filename": "Simple-Line-Icons",
                "extension": "svg"
            },
            "\/home\/pitylee\/fullcomp\/public_html\/templates\/admin\/fonts\/ionicons.eot": {
                "original": "\/fonts\/ionicons.eot",
                "resources": "\/resources\/admin\/fonts\/ionicons.eot",
                "rsrc": "\/rsrc\/admin\/fonts\/ionicons.eot",
                "fullpath": "\/home\/pitylee\/fullcomp\/public_html\/templates\/admin\/fonts\/ionicons.eot",
                "basename": "ionicons.eot",
                "filename": "ionicons",
                "extension": "eot"
            },
            "\/home\/pitylee\/fullcomp\/public_html\/templates\/admin\/fonts\/ionicons.ttf": {
                "original": "\/fonts\/ionicons.ttf",
                "resources": "\/resources\/admin\/fonts\/ionicons.ttf",
                "rsrc": "\/rsrc\/admin\/fonts\/ionicons.ttf",
                "fullpath": "\/home\/pitylee\/fullcomp\/public_html\/templates\/admin\/fonts\/ionicons.ttf",
                "basename": "ionicons.ttf",
                "filename": "ionicons",
                "extension": "ttf"
            },
            "\/home\/pitylee\/fullcomp\/public_html\/templates\/admin\/fonts\/ionicons.woff": {
                "original": "\/fonts\/ionicons.woff",
                "resources": "\/resources\/admin\/fonts\/ionicons.woff",
                "rsrc": "\/rsrc\/admin\/fonts\/ionicons.woff",
                "fullpath": "\/home\/pitylee\/fullcomp\/public_html\/templates\/admin\/fonts\/ionicons.woff",
                "basename": "ionicons.woff",
                "filename": "ionicons",
                "extension": "woff"
            },
            "\/home\/pitylee\/fullcomp\/public_html\/templates\/admin\/fonts\/ionicons.svg": {
                "original": "\/fonts\/ionicons.svg",
                "resources": "\/resources\/admin\/fonts\/ionicons.svg",
                "rsrc": "\/rsrc\/admin\/fonts\/ionicons.svg",
                "fullpath": "\/home\/pitylee\/fullcomp\/public_html\/templates\/admin\/fonts\/ionicons.svg",
                "basename": "ionicons.svg",
                "filename": "ionicons",
                "extension": "svg"
            },
            "\/home\/pitylee\/fullcomp\/public_html\/templates\/admin\/fonts\/weathericons-regular-webfont.eot": {
                "original": "\/fonts\/weathericons-regular-webfont.eot",
                "resources": "\/resources\/admin\/fonts\/weathericons-regular-webfont.eot",
                "rsrc": "\/rsrc\/admin\/fonts\/weathericons-regular-webfont.eot",
                "fullpath": "\/home\/pitylee\/fullcomp\/public_html\/templates\/admin\/fonts\/weathericons-regular-webfont.eot",
                "basename": "weathericons-regular-webfont.eot",
                "filename": "weathericons-regular-webfont",
                "extension": "eot"
            },
            "\/home\/pitylee\/fullcomp\/public_html\/templates\/admin\/fonts\/weathericons-regular-webfont.woff2": {
                "original": "\/fonts\/weathericons-regular-webfont.woff2",
                "resources": "\/resources\/admin\/fonts\/weathericons-regular-webfont.woff2",
                "rsrc": "\/rsrc\/admin\/fonts\/weathericons-regular-webfont.woff2",
                "fullpath": "\/home\/pitylee\/fullcomp\/public_html\/templates\/admin\/fonts\/weathericons-regular-webfont.woff2",
                "basename": "weathericons-regular-webfont.woff2",
                "filename": "weathericons-regular-webfont",
                "extension": "woff2"
            },
            "\/home\/pitylee\/fullcomp\/public_html\/templates\/admin\/fonts\/weathericons-regular-webfont.woff": {
                "original": "\/fonts\/weathericons-regular-webfont.woff",
                "resources": "\/resources\/admin\/fonts\/weathericons-regular-webfont.woff",
                "rsrc": "\/rsrc\/admin\/fonts\/weathericons-regular-webfont.woff",
                "fullpath": "\/home\/pitylee\/fullcomp\/public_html\/templates\/admin\/fonts\/weathericons-regular-webfont.woff",
                "basename": "weathericons-regular-webfont.woff",
                "filename": "weathericons-regular-webfont",
                "extension": "woff"
            },
            "\/home\/pitylee\/fullcomp\/public_html\/templates\/admin\/fonts\/weathericons-regular-webfont.ttf": {
                "original": "\/fonts\/weathericons-regular-webfont.ttf",
                "resources": "\/resources\/admin\/fonts\/weathericons-regular-webfont.ttf",
                "rsrc": "\/rsrc\/admin\/fonts\/weathericons-regular-webfont.ttf",
                "fullpath": "\/home\/pitylee\/fullcomp\/public_html\/templates\/admin\/fonts\/weathericons-regular-webfont.ttf",
                "basename": "weathericons-regular-webfont.ttf",
                "filename": "weathericons-regular-webfont",
                "extension": "ttf"
            },
            "\/home\/pitylee\/fullcomp\/public_html\/templates\/admin\/images\/multiple-arrow.png": {
                "original": "\/images\/multiple-arrow.png",
                "resources": "\/resources\/resize\/admin\/images\/multiple-arrow.png",
                "rsrc": "\/rsrc\/resize\/admin\/images\/multiple-arrow.png",
                "fullpath": "\/home\/pitylee\/fullcomp\/public_html\/templates\/admin\/images\/multiple-arrow.png",
                "basename": "multiple-arrow.png",
                "filename": "multiple-arrow",
                "extension": "png"
            },
            "\/home\/pitylee\/fullcomp\/public_html\/templates\/admin\/images\/agsquare.png": {
                "original": "\/images\/agsquare.png",
                "resources": "\/resources\/resize\/admin\/images\/agsquare.png",
                "rsrc": "\/rsrc\/resize\/admin\/images\/agsquare.png",
                "fullpath": "\/home\/pitylee\/fullcomp\/public_html\/templates\/admin\/images\/agsquare.png",
                "basename": "agsquare.png",
                "filename": "agsquare",
                "extension": "png"
            }
        },
        "img": {
            "\/volume1\/web\/firme\/uploads\/frontend\/images\/content\/home-slide-img.jpg": {
                "id": "preload-img-57",
                "original": "uploads\/images\/content\/home-slide-img.jpg",
                "resources": "\/resources\/resize\/frontend\/uploads\/images\/content\/home-slide-img.jpg",
                "rsrc": "\/rsrc\/resize\/frontend\/uploads\/images\/content\/home-slide-img.jpg",
                "fullpath": "\/volume1\/web\/firme\/uploads\/frontend\/images\/content\/home-slide-img.jpg",
                "cachepath": "\/volume1\/web\/firme\/cache\/resize\/frontend\/uploads\/images\/content\/home-slide-img.jpg",
                "basename": "home-slide-img.jpg",
                "filename": "home-slide-img",
                "extension": "jpg"
            },
            "\/volume1\/web\/firme\/templates\/frontend\/img\/slider-logo.png": {
                "id": "preload-img-3",
                "original": "\/img\/slider-logo.png",
                "resources": "\/resources\/resize\/frontend\/img\/slider-logo.png",
                "rsrc": "\/rsrc\/resize\/frontend\/img\/slider-logo.png",
                "fullpath": "\/volume1\/web\/firme\/templates\/frontend\/img\/slider-logo.png",
                "cachepath": "\/volume1\/web\/firme\/cache\/resize\/frontend\/img\/slider-logo.png",
                "basename": "slider-logo.png",
                "filename": "slider-logo",
                "extension": "png"
            },
            "\/volume1\/web\/firme\/uploads\/frontend\/images\/content\/post-img-1.jpg": {
                "id": "preload-img-55",
                "original": "uploads\/images\/content\/post-img-1.jpg",
                "resources": "\/resources\/resize\/frontend\/uploads\/images\/content\/post-img-1.jpg",
                "rsrc": "\/rsrc\/resize\/frontend\/uploads\/images\/content\/post-img-1.jpg",
                "fullpath": "\/volume1\/web\/firme\/uploads\/frontend\/images\/content\/post-img-1.jpg",
                "cachepath": "\/volume1\/web\/firme\/cache\/resize\/frontend\/uploads\/images\/content\/post-img-1.jpg",
                "basename": "post-img-1.jpg",
                "filename": "post-img-1",
                "extension": "jpg"
            },
            "\/volume1\/web\/firme\/uploads\/frontend\/images\/content\/post-img-2.jpg": {
                "id": "preload-img-56",
                "original": "uploads\/images\/content\/post-img-2.jpg",
                "resources": "\/resources\/resize\/frontend\/uploads\/images\/content\/post-img-2.jpg",
                "rsrc": "\/rsrc\/resize\/frontend\/uploads\/images\/content\/post-img-2.jpg",
                "fullpath": "\/volume1\/web\/firme\/uploads\/frontend\/images\/content\/post-img-2.jpg",
                "cachepath": "\/volume1\/web\/firme\/cache\/resize\/frontend\/uploads\/images\/content\/post-img-2.jpg",
                "basename": "post-img-2.jpg",
                "filename": "post-img-2",
                "extension": "jpg"
            },
            "\/volume1\/web\/firme\/uploads\/frontend\/images\/content\/post-img-3.jpg": {
                "id": "preload-img-57",
                "original": "uploads\/images\/content\/post-img-3.jpg",
                "resources": "\/resources\/resize\/frontend\/uploads\/images\/content\/post-img-3.jpg",
                "rsrc": "\/rsrc\/resize\/frontend\/uploads\/images\/content\/post-img-3.jpg",
                "fullpath": "\/volume1\/web\/firme\/uploads\/frontend\/images\/content\/post-img-3.jpg",
                "cachepath": "\/volume1\/web\/firme\/cache\/resize\/frontend\/uploads\/images\/content\/post-img-3.jpg",
                "basename": "post-img-3.jpg",
                "filename": "post-img-3",
                "extension": "jpg"
            },
            "\/volume1\/web\/firme\/uploads\/frontend\/images\/content\/post-img-4.jpg": {
                "id": "preload-img-58",
                "original": "uploads\/images\/content\/post-img-4.jpg",
                "resources": "\/resources\/resize\/frontend\/uploads\/images\/content\/post-img-4.jpg",
                "rsrc": "\/rsrc\/resize\/frontend\/uploads\/images\/content\/post-img-4.jpg",
                "fullpath": "\/volume1\/web\/firme\/uploads\/frontend\/images\/content\/post-img-4.jpg",
                "cachepath": "\/volume1\/web\/firme\/cache\/resize\/frontend\/uploads\/images\/content\/post-img-4.jpg",
                "basename": "post-img-4.jpg",
                "filename": "post-img-4",
                "extension": "jpg"
            },
            "\/volume1\/web\/firme\/uploads\/frontend\/images\/content\/post-img-5.jpg": {
                "id": "preload-img-59",
                "original": "uploads\/images\/content\/post-img-5.jpg",
                "resources": "\/resources\/resize\/frontend\/uploads\/images\/content\/post-img-5.jpg",
                "rsrc": "\/rsrc\/resize\/frontend\/uploads\/images\/content\/post-img-5.jpg",
                "fullpath": "\/volume1\/web\/firme\/uploads\/frontend\/images\/content\/post-img-5.jpg",
                "cachepath": "\/volume1\/web\/firme\/cache\/resize\/frontend\/uploads\/images\/content\/post-img-5.jpg",
                "basename": "post-img-5.jpg",
                "filename": "post-img-5",
                "extension": "jpg"
            },
            "\/volume1\/web\/firme\/uploads\/frontend\/images\/content\/post-img-6.jpg": {
                "id": "preload-img-60",
                "original": "uploads\/images\/content\/post-img-6.jpg",
                "resources": "\/resources\/resize\/frontend\/uploads\/images\/content\/post-img-6.jpg",
                "rsrc": "\/rsrc\/resize\/frontend\/uploads\/images\/content\/post-img-6.jpg",
                "fullpath": "\/volume1\/web\/firme\/uploads\/frontend\/images\/content\/post-img-6.jpg",
                "cachepath": "\/volume1\/web\/firme\/cache\/resize\/frontend\/uploads\/images\/content\/post-img-6.jpg",
                "basename": "post-img-6.jpg",
                "filename": "post-img-6",
                "extension": "jpg"
            },
            "\/volume1\/web\/firme\/uploads\/frontend\/images\/content\/post-img-7.jpg": {
                "id": "preload-img-61",
                "original": "uploads\/images\/content\/post-img-7.jpg",
                "resources": "\/resources\/resize\/frontend\/uploads\/images\/content\/post-img-7.jpg",
                "rsrc": "\/rsrc\/resize\/frontend\/uploads\/images\/content\/post-img-7.jpg",
                "fullpath": "\/volume1\/web\/firme\/uploads\/frontend\/images\/content\/post-img-7.jpg",
                "cachepath": "\/volume1\/web\/firme\/cache\/resize\/frontend\/uploads\/images\/content\/post-img-7.jpg",
                "basename": "post-img-7.jpg",
                "filename": "post-img-7",
                "extension": "jpg"
            },
            "\/volume1\/web\/firme\/uploads\/frontend\/images\/content\/post-img-8.jpg": {
                "id": "preload-img-62",
                "original": "uploads\/images\/content\/post-img-8.jpg",
                "resources": "\/resources\/resize\/frontend\/uploads\/images\/content\/post-img-8.jpg",
                "rsrc": "\/rsrc\/resize\/frontend\/uploads\/images\/content\/post-img-8.jpg",
                "fullpath": "\/volume1\/web\/firme\/uploads\/frontend\/images\/content\/post-img-8.jpg",
                "cachepath": "\/volume1\/web\/firme\/cache\/resize\/frontend\/uploads\/images\/content\/post-img-8.jpg",
                "basename": "post-img-8.jpg",
                "filename": "post-img-8",
                "extension": "jpg"
            },
            "\/volume1\/web\/firme\/uploads\/frontend\/images\/content\/partner1.png": {
                "id": "preload-img-69",
                "original": "uploads\/images\/content\/partner1.png",
                "resources": "\/resources\/resize\/frontend\/uploads\/images\/content\/partner1.png",
                "rsrc": "\/rsrc\/resize\/frontend\/uploads\/images\/content\/partner1.png",
                "fullpath": "\/volume1\/web\/firme\/uploads\/frontend\/images\/content\/partner1.png",
                "cachepath": "\/volume1\/web\/firme\/cache\/resize\/frontend\/uploads\/images\/content\/partner1.png",
                "basename": "partner1.png",
                "filename": "partner1",
                "extension": "png"
            },
            "\/volume1\/web\/firme\/uploads\/frontend\/images\/content\/partner2.png": {
                "id": "preload-img-70",
                "original": "uploads\/images\/content\/partner2.png",
                "resources": "\/resources\/resize\/frontend\/uploads\/images\/content\/partner2.png",
                "rsrc": "\/rsrc\/resize\/frontend\/uploads\/images\/content\/partner2.png",
                "fullpath": "\/volume1\/web\/firme\/uploads\/frontend\/images\/content\/partner2.png",
                "cachepath": "\/volume1\/web\/firme\/cache\/resize\/frontend\/uploads\/images\/content\/partner2.png",
                "basename": "partner2.png",
                "filename": "partner2",
                "extension": "png"
            },
            "\/volume1\/web\/firme\/uploads\/frontend\/images\/content\/partner3.png": {
                "id": "preload-img-71",
                "original": "uploads\/images\/content\/partner3.png",
                "resources": "\/resources\/resize\/frontend\/uploads\/images\/content\/partner3.png",
                "rsrc": "\/rsrc\/resize\/frontend\/uploads\/images\/content\/partner3.png",
                "fullpath": "\/volume1\/web\/firme\/uploads\/frontend\/images\/content\/partner3.png",
                "cachepath": "\/volume1\/web\/firme\/cache\/resize\/frontend\/uploads\/images\/content\/partner3.png",
                "basename": "partner3.png",
                "filename": "partner3",
                "extension": "png"
            },
            "\/volume1\/web\/firme\/uploads\/frontend\/images\/content\/partner4.png": {
                "id": "preload-img-72",
                "original": "uploads\/images\/content\/partner4.png",
                "resources": "\/resources\/resize\/frontend\/uploads\/images\/content\/partner4.png",
                "rsrc": "\/rsrc\/resize\/frontend\/uploads\/images\/content\/partner4.png",
                "fullpath": "\/volume1\/web\/firme\/uploads\/frontend\/images\/content\/partner4.png",
                "cachepath": "\/volume1\/web\/firme\/cache\/resize\/frontend\/uploads\/images\/content\/partner4.png",
                "basename": "partner4.png",
                "filename": "partner4",
                "extension": "png"
            },
            "\/volume1\/web\/firme\/uploads\/frontend\/images\/content\/partner5.png": {
                "id": "preload-img-73",
                "original": "uploads\/images\/content\/partner5.png",
                "resources": "\/resources\/resize\/frontend\/uploads\/images\/content\/partner5.png",
                "rsrc": "\/rsrc\/resize\/frontend\/uploads\/images\/content\/partner5.png",
                "fullpath": "\/volume1\/web\/firme\/uploads\/frontend\/images\/content\/partner5.png",
                "cachepath": "\/volume1\/web\/firme\/cache\/resize\/frontend\/uploads\/images\/content\/partner5.png",
                "basename": "partner5.png",
                "filename": "partner5",
                "extension": "png"
            },
            "\/volume1\/web\/firme\/uploads\/frontend\/images\/content\/partner6.png": {
                "id": "preload-img-74",
                "original": "uploads\/images\/content\/partner6.png",
                "resources": "\/resources\/resize\/frontend\/uploads\/images\/content\/partner6.png",
                "rsrc": "\/rsrc\/resize\/frontend\/uploads\/images\/content\/partner6.png",
                "fullpath": "\/volume1\/web\/firme\/uploads\/frontend\/images\/content\/partner6.png",
                "cachepath": "\/volume1\/web\/firme\/cache\/resize\/frontend\/uploads\/images\/content\/partner6.png",
                "basename": "partner6.png",
                "filename": "partner6",
                "extension": "png"
            },
            "\/volume1\/web\/firme\/templates\/frontend\/img\/footer_logo.png": {
                "id": "preload-img-4",
                "original": "\/img\/footer_logo.png",
                "resources": "\/resources\/resize\/frontend\/img\/footer_logo.png",
                "rsrc": "\/rsrc\/resize\/frontend\/img\/footer_logo.png",
                "fullpath": "\/volume1\/web\/firme\/templates\/frontend\/img\/footer_logo.png",
                "cachepath": "\/volume1\/web\/firme\/cache\/resize\/frontend\/img\/footer_logo.png",
                "basename": "footer_logo.png",
                "filename": "footer_logo",
                "extension": "png"
            },
            "\/volume1\/web\/firme\/uploads\/frontend\/images\/content\/latest_post_1.jpg": {
                "id": "preload-img-56",
                "original": "uploads\/images\/content\/latest_post_1.jpg",
                "resources": "\/resources\/resize\/frontend\/uploads\/images\/content\/latest_post_1.jpg",
                "rsrc": "\/rsrc\/resize\/frontend\/uploads\/images\/content\/latest_post_1.jpg",
                "fullpath": "\/volume1\/web\/firme\/uploads\/frontend\/images\/content\/latest_post_1.jpg",
                "cachepath": "\/volume1\/web\/firme\/cache\/resize\/frontend\/uploads\/images\/content\/latest_post_1.jpg",
                "basename": "latest_post_1.jpg",
                "filename": "latest_post_1",
                "extension": "jpg"
            },
            "\/volume1\/web\/firme\/uploads\/frontend\/images\/content\/latest_post_2.jpg": {
                "id": "preload-img-57",
                "original": "uploads\/images\/content\/latest_post_2.jpg",
                "resources": "\/resources\/resize\/frontend\/uploads\/images\/content\/latest_post_2.jpg",
                "rsrc": "\/rsrc\/resize\/frontend\/uploads\/images\/content\/latest_post_2.jpg",
                "fullpath": "\/volume1\/web\/firme\/uploads\/frontend\/images\/content\/latest_post_2.jpg",
                "cachepath": "\/volume1\/web\/firme\/cache\/resize\/frontend\/uploads\/images\/content\/latest_post_2.jpg",
                "basename": "latest_post_2.jpg",
                "filename": "latest_post_2",
                "extension": "jpg"
            }
        }
    }
}